{
	"name": "asd.@package_name@",
	"version": "0.0.1",
	"type": "application",
    "license": "MIT",
    "author": "bright-composite",
    "url": "https://gitlab.com/asd-project/@package_name@",
    "description": "<Put description here>",
    "topics": ["asd", "@package_name@"]
}
